%YAML 1.1
%TAG !u! tag:unity3d.com,2011:
--- !u!114 &11400000
MonoBehaviour:
  m_ObjectHideFlags: 0
  m_CorrespondingSourceObject: {fileID: 0}
  m_PrefabInstance: {fileID: 0}
  m_PrefabAsset: {fileID: 0}
  m_GameObject: {fileID: 0}
  m_Enabled: 1
  m_EditorHideFlags: 0
  m_Script: {fileID: 11500000, guid: 3dbb4d43da4dc5c46a85ce2f83da1188, type: 3}
  m_Name: EnemyBaseStats
  m_EditorClassIdentifier: 
  hp: 100
  detectDistance: 20
  runSpeed: 10
  walkSpeed: 7
  crouchSpeed: 3
  jumpForce: 10
  shootDistance: 30
