%YAML 1.1
%TAG !u! tag:unity3d.com,2011:
--- !u!114 &11400000
MonoBehaviour:
  m_ObjectHideFlags: 0
  m_CorrespondingSourceObject: {fileID: 0}
  m_PrefabInstance: {fileID: 0}
  m_PrefabAsset: {fileID: 0}
  m_GameObject: {fileID: 0}
  m_Enabled: 1
  m_EditorHideFlags: 0
  m_Script: {fileID: 11500000, guid: 106e65e5cec302a47a0c1815821e07c3, type: 3}
  m_Name: SPAS
  m_EditorClassIdentifier: 
  damage: 80
  timeBetweenBullets: 0
  timeBetweenShootAction: 0.5
  bulletsFiredByShot: 1
  IsWeaponAuto: 0
  weaponSound: AK47
  pelletWeapon: 1
  pellets: 10
  magazineSize: 5
  extraAmmo: 12
  reloadTime: 1
  movementSpeedMultipler: 0
  horizontalRecoil: 0.1
  verticalRecoil: 0.1
  movementSpreadMultipler: 0
